<svg width="21" height="21" viewBox="0 0 21 21" fill="none" xmlns="http://www.w3.org/2000/svg">
<path d="M10.5 0L8.64282 1.85721L15.9732 9.18749H0V11.8125H15.9732L8.64282 19.1429L10.5 21L21 10.5L10.5 0Z" fill="#F6B452"/>
</svg>
